[gd_resource type="AudioBusLayout" load_steps=2 format=2]

[sub_resource type="AudioEffectLowShelfFilter" id=1]
resource_name = "LowShelfFilter"

[resource]
bus/0/effect/0/effect = SubResource( 1 )
bus/0/effect/0/enabled = true
